The most damaging and economically costly weather events in the United States (1950-2011)
…
Results

#* Does the analysis address the question of which types of events are most harmful to population health?
data %>% group_by(EVTYPE) %>% summarise(FATALITIES=sum(FATALITIES),
                                        INJURIES=sum(INJURIES),
                                        PROPDMG=sum(PROPDMG),
                                        CROPDMG=sum(CROPDMG)) %>% arrange(-FATALITIES,
                                                                          -INJURIES,
                                                                          -PROPDMG,
                                                                          -CROPDMG)

## # A tibble: 985 x 5
##    EVTYPE         FATALITIES INJURIES  PROPDMG CROPDMG
##    <fct>               <dbl>    <dbl>    <dbl>   <dbl>
##  1 TORNADO              5633    91346 3212258. 100019.
##  2 EXCESSIVE HEAT       1903     6525    1460     494.
##  3 FLASH FLOOD           978     1777 1420125. 179200.
##  4 HEAT                  937     2100     298.    663.
##  5 LIGHTNING             816     5230  603352.   3581.
##  6 TSTM WIND             504     6957 1335966. 109203.
##  7 FLOOD                 470     6789  899938. 168038.
##  8 RIP CURRENT           368      232       1       0 
##  9 HIGH WIND             248     1137  324732.  17283.
## 10 AVALANCHE             224      170    1624.      0 
## # ... with 975 more rows
…
